{
  "page": 1,
  "total_results": 10000,
  "total_pages": 500,
  "results": [
    {
      "popularity": 722.783,
      "vote_count": 976,
      "video": false,
      "poster_path": "/images/template2.png",
      "id": 475557,
      "adult": false,
      "backdrop_path": "/images/template2.png",
      "original_language": "en",
      "original_title": "Joker",
      "genre_ids": [
        80,
        18,
        53
      ],
      "title": "Joker",
      "vote_average": 8.8,
      "overview": "During the 1980s, a failed stand-up comedian is driven insane and turns to a life of crime and chaos in Gotham City while becoming an infamous psychopathic crime figure.",
      "release_date": "2019-10-04"
    },
    {
      "popularity": 265.852,
      "vote_count": 1306,
      "video": false,
      "poster_path": "/images/template.png",
      "id": 474350,
      "adult": false,
      "backdrop_path": "/images/template.png",
      "original_language": "en",
      "original_title": "It Chapter Two",
      "genre_ids": [
        27
      ],
      "title": "It Chapter Two",
      "vote_average": 7.1,
      "overview": "27 years after overcoming the malevolent supernatural entity Pennywise, the former members of the Losers' Club, who have grown up and moved away from Derry, are brought back together by a devastating phone call.",
      "release_date": "2019-09-06"
    },
    {
      "popularity": 259.397,
      "vote_count": 4212,
      "video": false,
      "poster_path": "/images/template2.png",
      "id": 429617,
      "adult": false,
      "backdrop_path": "/images/template2.png",
      "original_language": "en",
      "original_title": "Spider-Man: Far from Home",
      "genre_ids": [
        28,
        12,
        878
      ],
      "title": "Spider-Man: Far from Home",
      "vote_average": 7.6,
      "overview": "Peter Parker and his friends go on a summer trip to Europe. However, they will hardly be able to rest - Peter will have to agree to help Nick Fury uncover the mystery of creatures that cause natural disasters and destruction throughout the continent.",
      "release_date": "2019-07-02"
    },
    {
      "popularity": 155.023,
      "vote_count": 605,
      "video": false,
      "poster_path": "/images/template.png",
      "id": 429203,
      "adult": false,
      "backdrop_path": "/images/template.png",
      "original_language": "en",
      "original_title": "The Old Man & the Gun",
      "genre_ids": [
        35,
        80,
        18
      ],
      "title": "The Old Man & the Gun",
      "vote_average": 6.3,
      "overview": "The true story of Forrest Tucker, from his audacious escape from San Quentin at the age of 70 to an unprecedented string of heists that confounded authorities and enchanted the public. Wrapped up in the pursuit are a detective, who becomes captivated with Forrest’s commitment to his craft, and a woman, who loves him in spite of his chosen profession.",
      "release_date": "2018-09-28"
    },
    {
      "popularity": 243.011,
      "id": 582083,
      "video": false,
      "vote_count": 0,
      "vote_average": 0,
      "title": "Kamen Rider Build NEW WORLD: Kamen Rider Grease",
      "release_date": "2019-11-27",
      "original_language": "ja",
      "original_title": "仮面ライダービルドNEW WORLD　仮面ライダーグリス",
      "genre_ids": [
        28,
        878,
        12
      ],
      "backdrop_path": "/images/template2.png",
      "adult": false,
      "overview": "Deputy Officer of the United Nations Alliance, Simon Marcus, who aims to conquer the world with the terrorist organization Downfall along with the mad scientist Keiji Uraga, attack the Kamen Riders with overwhelming strength. It is only on Kamen Rider Grease that the enemy's abilities did not work. In order to defeat this new enemy and rescue Misora, Kazumi Sawatari must create a new item ... but it is told that it requires the  life of his friends, the Three Crows. The ultimate decision must be made.",
      "poster_path": "/images/template2.png"
    },
    {
      "popularity": 146.232,
      "vote_count": 352,
      "video": false,
      "poster_path": "/images/template.png",
      "id": 522938,
      "adult": false,
      "backdrop_path": "/images/template.png",
      "original_language": "en",
      "original_title": "Rambo: Last Blood",
      "genre_ids": [
        28,
        53
      ],
      "title": "Rambo: Last Blood",
      "vote_average": 6.1,
      "overview": "When John Rambo's niece travels to Mexico to find the father that abandoned her and her mother, she finds herself in the grasps of Calle Mexican sex traffickers. When she doesn't return home as expected, John learns she's crossed into Mexico and sets out to get her back and make them pay.",
      "release_date": "2019-09-20"
    },
    {
      "popularity": 147.97,
      "vote_count": 122,
      "video": false,
      "poster_path": "/images/template2.png",
      "id": 513045,
      "adult": false,
      "backdrop_path": "/images/template2.png",
      "original_language": "en",
      "original_title": "Stuber",
      "genre_ids": [
        28,
        35,
        80,
        53
      ],
      "title": "Stuber",
      "vote_average": 6.5,
      "overview": "After crashing his car, a cop who's recovering from eye surgery recruits an Uber driver to help him catch a heroin dealer. The mismatched pair soon find themselves in for a wild day of stakeouts and shootouts as they encounter the city's seedy side.",
      "release_date": "2019-07-12"
    },
    {
      "popularity": 150.877,
      "vote_count": 2476,
      "video": false,
      "poster_path": "/images/template.png",
      "id": 301528,
      "adult": false,
      "backdrop_path": "/images/template.png",
      "original_language": "en",
      "original_title": "Toy Story 4",
      "genre_ids": [
        12,
        16,
        35,
        14,
        10751
      ],
      "title": "Toy Story 4",
      "vote_average": 7.6,
      "overview": "Woody has always been confident about his place in the world and that his priority is taking care of his kid, whether that's Andy or Bonnie. But when Bonnie adds a reluctant new toy called \"Forky\" to her room, a road trip adventure alongside old and new friends will show Woody how big the world can be for a toy.",
      "release_date": "2019-06-21"
    },
    {
      "popularity": 185.034,
      "vote_count": 1399,
      "video": false,
      "poster_path": "/images/template2.png",
      "id": 384018,
      "adult": false,
      "backdrop_path": "/images/template2.png",
      "original_language": "en",
      "original_title": "Fast & Furious Presents: Hobbs & Shaw",
      "genre_ids": [
        28
      ],
      "title": "Fast & Furious Presents: Hobbs & Shaw",
      "vote_average": 6.5,
      "overview": "A spinoff of The Fate of the Furious, focusing on Johnson's US Diplomatic Security Agent Luke Hobbs forming an unlikely alliance with Statham's Deckard Shaw.",
      "release_date": "2019-08-02"
    },
    {
      "popularity": 128.585,
      "vote_count": 2786,
      "video": false,
      "poster_path": "/images/template.png",
      "id": 458156,
      "adult": false,
      "backdrop_path": "/images/template.png",
      "original_language": "en",
      "original_title": "John Wick: Chapter 3 - Parabellum",
      "genre_ids": [
        28,
        80,
        53
      ],
      "title": "John Wick: Chapter 3 - Parabellum",
      "vote_average": 7.1,
      "overview": "Super-assassin John Wick returns with a $14 million price tag on his head and an army of bounty-hunting killers on his trail. After killing a member of the shadowy international assassin’s guild, the High Table, John Wick is excommunicado, but the world’s most ruthless hit men and women await his every turn.",
      "release_date": "2019-05-17"
    },
    {
      "popularity": 149.171,
      "vote_count": 3608,
      "video": false,
      "poster_path": "/images/template.png",
      "id": 420817,
      "adult": false,
      "backdrop_path": "/images/template.png",
      "original_language": "en",
      "original_title": "Aladdin",
      "genre_ids": [
        12,
        35,
        14,
        10749,
        10751
      ],
      "title": "Aladdin",
      "vote_average": 7.1,
      "overview": "A kindhearted street urchin named Aladdin embarks on a magical adventure after finding a lamp that releases a wisecracking genie while a power-hungry Grand Vizier vies for the same lamp that has the power to make their deepest wishes come true.",
      "release_date": "2019-05-24"
    },
    {
      "popularity": 140.228,
      "vote_count": 64,
      "video": false,
      "poster_path": "/images/template.png",
      "id": 453405,
      "adult": false,
      "backdrop_path": "/images/template.png",
      "original_language": "en",
      "original_title": "Gemini Man",
      "genre_ids": [
        28,
        878,
        53
      ],
      "title": "Gemini Man",
      "vote_average": 6,
      "overview": "Henry Brogen, an aging assassin tries to get out of the business but finds himself in the ultimate battle: fighting his own clone who is 25 years younger than him and at the peak of his abilities.",
      "release_date": "2019-10-11"
    },
    {
      "popularity": 209.583,
      "vote_count": 8166,
      "video": false,
      "poster_path": "/images/template2.png",
      "id": 920,
      "adult": false,
      "backdrop_path": "/images/template2.png",
      "original_language": "en",
      "original_title": "Cars",
      "genre_ids": [
        12,
        16,
        35,
        10751
      ],
      "title": "Cars",
      "vote_average": 6.7,
      "overview": "Lightning McQueen, a hotshot rookie race car driven to succeed, discovers that life is about the journey, not the finish line, when he finds himself unexpectedly detoured in the sleepy Route 66 town of Radiator Springs. On route across the country to the big Piston Cup Championship in California to compete against two seasoned pros, McQueen gets to know the town's offbeat characters.",
      "release_date": "2006-06-09"
    },
    {
      "popularity": 109.507,
      "vote_count": 2114,
      "video": false,
      "poster_path": "/images/template.png",
      "id": 466272,
      "adult": false,
      "backdrop_path": "/images/template.png",
      "original_language": "en",
      "original_title": "Once Upon a Time... in Hollywood",
      "genre_ids": [
        28,
        35,
        80,
        18
      ],
      "title": "Once Upon a Time... in Hollywood",
      "vote_average": 7.6,
      "overview": "A faded television actor and his stunt double strive to achieve fame and success in the film industry during the final years of Hollywood's Golden Age in 1969 Los Angeles.",
      "release_date": "2019-07-26"
    },
    {
      "popularity": 106.033,
      "vote_count": 536,
      "video": false,
      "poster_path": "/images/template2.png",
      "id": 511987,
      "adult": false,
      "backdrop_path": "/images/template2.png",
      "original_language": "en",
      "original_title": "Crawl",
      "genre_ids": [
        28,
        18,
        27,
        53
      ],
      "title": "Crawl",
      "vote_average": 6,
      "overview": "While struggling to save her father during a Category 5 hurricane, a young woman finds herself trapped inside a flooding house and fighting for her life against Florida’s most savage and feared predators.",
      "release_date": "2019-07-12"
    },
    {
      "popularity": 105.858,
      "vote_count": 245,
      "video": false,
      "poster_path": "/images/template.png",
      "id": 540901,
      "adult": false,
      "backdrop_path": "/images/template.png",
      "original_language": "en",
      "original_title": "Hustlers",
      "genre_ids": [
        35,
        80,
        18
      ],
      "title": "Hustlers",
      "vote_average": 6.2,
      "overview": "A crew of savvy former strip club employees band together to turn the tables on their Wall Street clients.",
      "release_date": "2019-09-13"
    },
    {
      "popularity": 92.687,
      "vote_count": 11,
      "video": false,
      "poster_path": "/images/template2.png",
      "id": 428045,
      "adult": false,
      "backdrop_path": "/images/template2.png",
      "original_language": "ru",
      "original_title": "Тайна Печати дракона",
      "genre_ids": [
        12,
        14
      ],
      "title": "The Mystery of the Dragon’s Seal",
      "vote_average": 4.7,
      "overview": "The Russian Czar Peter the Great commissions Jonathan Green, an English traveller, to map the Far East territories of the Russian Empire. Green sets off on yet another long journey, full of unbelievable adventures, which eventually leads him to China. On his way, the famous cartographer makes breath-taking discoveries, meets mysterious creatures, Chinese princesses, deadly masters of oriental martial arts, and even Lun Van, the King of Dragons, himself. What could be more perilous than looking into the eyes of Viy? Only meeting him again… What will prevail this time — the unflinching scepticism of the scientist or ancient black magic, which has already gained influence over the Far East Lands?",
      "release_date": "2019-08-16"
    },
    {
      "popularity": 98.135,
      "vote_count": 2054,
      "video": false,
      "poster_path": "/images/template.png",
      "id": 320288,
      "adult": false,
      "backdrop_path": "/images/template.png",
      "original_language": "en",
      "original_title": "Dark Phoenix",
      "genre_ids": [
        28,
        12,
        878
      ],
      "title": "Dark Phoenix",
      "vote_average": 6.1,
      "overview": "The X-Men face their most formidable and powerful foe when one of their own, Jean Grey, starts to spiral out of control. During a rescue mission in outer space, Jean is nearly killed when she's hit by a mysterious cosmic force. Once she returns home, this force not only makes her infinitely more powerful, but far more unstable. The X-Men must now band together to save her soul and battle aliens that want to use Grey's new abilities to rule the galaxy.",
      "release_date": "2019-06-07"
    },
    {
      "popularity": 91.338,
      "vote_count": 667,
      "video": false,
      "poster_path": "/images/template2.png",
      "id": 419704,
      "adult": false,
      "backdrop_path": "/images/template2.png",
      "original_language": "en",
      "original_title": "Ad Astra",
      "genre_ids": [
        12,
        18,
        878
      ],
      "title": "Ad Astra",
      "vote_average": 6.2,
      "overview": "An astronaut travels to the outer edges of the solar system to find his father and unravel a mystery that threatens the survival of our planet. He uncovers secrets which challenge the nature of human existence and our place in the cosmos.",
      "release_date": "2019-09-20"
    },
    {
      "popularity": 94.346,
      "vote_count": 1393,
      "video": false,
      "poster_path": "/images/template.png",
      "id": 479455,
      "adult": false,
      "backdrop_path": "/images/template.png",
      "original_language": "en",
      "original_title": "Men in Black: International",
      "genre_ids": [
        28,
        12,
        35,
        878
      ],
      "title": "Men in Black: International",
      "vote_average": 6,
      "overview": "The Men in Black have always protected the Earth from the scum of the universe. In this new adventure, they tackle their biggest, most global threat to date: a mole in the Men in Black organization.",
      "release_date": "2019-06-14"
    }
  ]
}